Beta Diverisity Functions · MetaCommunityMetrics Documentation
…
Details
Empty patches have to be removed before calculation.
Species that were not recorded at the given time step have to be removed before calculation.
For binary data, the function calculates Podani family, Jaccard-based indices. 
For quantitative data, the function calculates Podani family, Ruzicka-based indices.
Example

julia> using MetaCommunityMetrics, Pipe, DataFrames

julia> df = load_sample_data()
48735×10 DataFrame
   Row │ Year   Month  Day    Sampling_date_order  plot   Species  Abundance  Presence  Latitude  Longitude 
       │ Int64  Int64  Int64  Int64                Int64  String3  Int64      Int64     Float64   Float64   
───────┼────────────────────────────────────────────────────────────────────────────────────────────────────
     1 │  2010      1     16                    1      1  BA               0         0      35.0     -110.0
     2 │  2010      1     16                    1      2  BA               0         0      35.0     -109.5
     3 │  2010      1     16                    1      8  BA               0         0      35.5     -109.5
     4 │  2010      1     16                    1      9  BA               0         0      35.5     -109.0
     5 │  2010      1     16                    1     11  BA               0         0      35.5     -108.0
   ⋮   │   ⋮      ⋮      ⋮             ⋮             ⋮       ⋮         ⋮         ⋮         ⋮          ⋮
 48731 │  2023      3     21                  117      9  SH               0         0      35.5     -109.0
 48732 │  2023      3     21                  117     10  SH               0         0      35.5     -108.5
 48733 │  2023      3     21                  117     12  SH               1         1      35.5     -107.5
 48734 │  2023      3     21                  117     16  SH               0         0      36.0     -108.5
 48735 │  2023      3     21                  117     23  SH               0         0      36.5     -108.0
                                                                                          48725 rows omitted
…
julia> using MetaCommunityMetrics, Pipe, DataFrames

julia> df = load_sample_data()
48735×10 DataFrame
   Row │ Year   Month  Day    Sampling_date_order  plot   Species  Abundance  Presence  Latitude  Longitude 
       │ Int64  Int64  Int64  Int64                Int64  String3  Int64      Int64     Float64   Float64   
───────┼────────────────────────────────────────────────────────────────────────────────────────────────────
     1 │  2010      1     16                    1      1  BA               0         0      35.0     -110.0
     2 │  2010      1     16                    1      2  BA               0         0      35.0     -109.5
     3 │  2010      1     16                    1      8  BA               0         0      35.5     -109.5
     4 │  2010      1     16                    1      9  BA               0         0      35.5     -109.0
     5 │  2010      1     16                    1     11  BA               0         0      35.5     -108.0
   ⋮   │   ⋮      ⋮      ⋮             ⋮             ⋮       ⋮         ⋮         ⋮         ⋮          ⋮
 48731 │  2023      3     21                  117      9  SH               0         0      35.5     -109.0
 48732 │  2023      3     21                  117     10  SH               0         0      35.5     -108.5
 48733 │  2023      3     21                  117     12  SH               1         1      35.5     -107.5
 48734 │  2023      3     21                  117     16  SH               0         0      36.0     -108.5
 48735 │  2023      3     21                  117     23  SH               0         0      36.5     -108.0
                                                                                          48725 rows omitted
…
julia> using MetaCommunityMetrics, Pipe, DataFrames

julia> df = load_sample_data()
48735×10 DataFrame
   Row │ Year   Month  Day    Sampling_date_order  plot   Species  Abundance  Presence  Latitude  Longitude 
       │ Int64  Int64  Int64  Int64                Int64  String3  Int64      Int64     Float64   Float64   
───────┼────────────────────────────────────────────────────────────────────────────────────────────────────
     1 │  2010      1     16                    1      1  BA               0         0      35.0     -110.0
     2 │  2010      1     16                    1      2  BA               0         0      35.0     -109.5
     3 │  2010      1     16                    1      8  BA               0         0      35.5     -109.5
     4 │  2010      1     16                    1      9  BA               0         0      35.5     -109.0
     5 │  2010      1     16                    1     11  BA               0         0      35.5     -108.0
   ⋮   │   ⋮      ⋮      ⋮             ⋮             ⋮       ⋮         ⋮         ⋮         ⋮          ⋮
 48731 │  2023      3     21                  117      9  SH               0         0      35.5     -109.0
 48732 │  2023      3     21                  117     10  SH               0         0      35.5     -108.5
 48733 │  2023      3     21                  117     12  SH               1         1      35.5     -107.5
 48734 │  2023      3     21                  117     16  SH               0         0      36.0     -108.5
 48735 │  2023      3     21                  117     23  SH               0         0      36.5     -108.0
                                                                                          48725 rows omitted
…
