Illustration on rodent metacommunity data · MetaCommunityMetrics Documentation
…
julia> grouping_result[60]
456×7 DataFrame
 Row  Time   Latitude  Longitude  Site   Species  Presence  Group  
      Int64  Float64   Float64    Int64  String3  Int64     Int64? 

   1     60      35.0     -108.5      4  BA              0       1
   2     60      35.0     -108.0      5  BA              1       1
   3     60      35.0     -107.5      6  BA              0       1
   4     60      35.5     -110.0      7  BA              0       2
   5     60      35.5     -108.0     11  BA              0       1

 452     60      35.5     -109.0      9  SH              0       2
 453     60      35.5     -108.5     10  SH              0       1
 454     60      35.5     -107.5     12  SH              1       1
 455     60      36.0     -108.5     16  SH              0       4
 456     60      36.5     -108.0     23  SH              0       4
                                                    446 rows omitted
…
