…
## Datasets used for this benchmark
### Large Dataset
```@jildoctest
53352×12 DataFrame
   Row │ Year   Month  Day    Sampling_date_order  plot   Species  Abundance  Presence  Latitude  Longitude  standardized_temperature  standardized_precipitation 
       │ Int64  Int64  Int64  Int64                Int64  String3  Int64      Int64     Float64   Float64    Float64                 Float64                  
───────┼──────────────────────────────────────────────────────────────────────────────────────────────────────────────────────────────────────────────────────
     1 │  2010      1     16                    1      1  BA               0         0      35.0     -110.0                0.829467              -1.4024
     2 │  2010      1     16                    1      2  BA               0         0      35.0     -109.5               -1.12294               -0.0519895
     3 │  2010      1     16                    1      4  BA               0         0      35.0     -108.5               -0.409808              -0.803663
     4 │  2010      1     16                    1      8  BA               0         0      35.5     -109.5               -1.35913               -0.646369
     5 │  2010      1     16                    1      9  BA               0         0      35.5     -109.0                0.0822                 1.09485
   ⋮   │   ⋮      ⋮      ⋮             ⋮             ⋮       ⋮         ⋮         ⋮         ⋮          ⋮                ⋮                        ⋮
 53348 │  2023      3     21                  117      9  SH               0         0      35.5     -109.0               -0.571565              -0.836345
 53349 │  2023      3     21                  117     10  SH               0         0      35.5     -108.5               -2.33729               -0.398522
 53350 │  2023      3     21                  117     12  SH               1         1      35.5     -107.5                0.547169               1.03257
 53351 │  2023      3     21                  117     16  SH               0         0      36.0     -108.5               -0.815015               0.95971
 53352 │  2023      3     21                  117     23  SH               0         0      36.5     -108.0                0.48949               -1.59416
                                                                                                                                            53342 rows omitted
```
### Medium Dataset
```@jildoctest
26676×12 DataFrame
   Row │ Year   Month  Day    Sampling_date_order  plot   Species  Abundance  Presence  Latitude  Longitude  standardized_temperature  standardized_precipitation 
       │ Int64  Int64  Int64  Int64                Int64  String3  Int64      Int64     Float64   Float64    Float64                 Float64                  
───────┼──────────────────────────────────────────────────────────────────────────────────────────────────────────────────────────────────────────────────────
     1 │  2015      7     18                   56     12  PM               0         0      35.5     -107.5              -1.30965                  0.967859
     2 │  2016      8      6                   66     13  SF               0         0      36.0     -110.0               1.45692                  1.77253
     3 │  2017      2     25                   71     21  SF               0         0      36.5     -109.0              -1.50086                  0.993311
     4 │  2018      5     19                   82     16  PB               0         0      36.0     -108.5              -1.2202                   0.684295
   ⋮   │   ⋮      ⋮      ⋮             ⋮             ⋮       ⋮         ⋮         ⋮         ⋮          ⋮                ⋮                        ⋮
 26673 │  2010     11      6                    8     13  BA               0         0      36.0     -110.0              -1.05336                 -0.250324
 26674 │  2013      9     14                   36     12  NA               0         0      35.5     -107.5               0.213222                 0.12
 26675 │  2023      2     18                  116     12  DS               0         0      35.5     -107.5              -0.217475                 0.042571
 26676 │  2014     11     22                   49     13  PF               0         0      36.0     -110.0               0.613491                -1.17076
                                                                                                                                            26668 rows omitted
```
### Small Dataset
```@jildoctest
5335×12 DataFrame
  Row │ Year   Month  Day    Sampling_date_order  plot   Species  Abundance  Presence  Latitude  Longitude  standardized_temperature  standardized_precipitation 
      │ Int64  Int64  Int64  Int64                Int64  String3  Int64      Int64     Float64   Float64    Float64                 Float64                  
──────┼──────────────────────────────────────────────────────────────────────────────────────────────────────────────────────────────────────────────────────
    1 │  2015      7     18                   56     12  PM               0         0      35.5     -107.5               -1.30965                 0.967859
    2 │  2016      8      6                   66     13  SF               0         0      36.0     -110.0                1.45692                 1.77253
    3 │  2017      2     25                   71     21  SF               0         0      36.5     -109.0               -1.50086                 0.993311
    4 │  2018      5     19                   82     16  PB               0         0      36.0     -108.5               -1.2202                  0.684295
  ⋮   │   ⋮      ⋮      ⋮             ⋮             ⋮       ⋮         ⋮         ⋮         ⋮          ⋮                ⋮                        ⋮
 5332 │  2013     11      2                   37     13  RF               0         0      36.0     -110.0                2.07639                 2.72841
 5333 │  2018     11     10                   88      6  PH               0         0      35.0     -107.5               -0.197006                0.842547
 5334 │  2018      3     24                   80      2  DS               0         0      35.0     -109.5               -0.920093               -0.276074
 5335 │  2014      4     26                   42      7  PH               0         0      35.5     -110.0                0.848755               -0.247144
                                                                                                                                            5327 rows omitted
```
…
