…
To assess the sample data, use the following command:
```julia
using MetaCommunityMetrics

load_sample_data()
```

### Example
```@jildoctest
julia> using MetaCommunityMetrics

julia> load_sample_data()
48735×12 DataFrame
   Row │ Year   Month  Day    Sampling_date_order  plot   Species  Abundance  Presence  Latitude  Longitude  normalized_temperature  normalized_precipitation 
       │ Int64  Int64  Int64  Int64                Int64  String3  Int64      Int64     Float64   Float64    Float64                 Float64                  
───────┼──────────────────────────────────────────────────────────────────────────────────────────────────────────────────────────────────────────────────────
     1 │  2010      1     16                    1      1  BA               0         0      35.0     -110.0               0.80987                  -0.290381
     2 │  2010      1     16                    1      2  BA               0         0      35.0     -109.5              -1.12523                   0.750317
     3 │  2010      1     16                    1      8  BA               0         0      35.5     -109.5              -1.10775                  -1.87583
     4 │  2010      1     16                    1      9  BA               0         0      35.5     -109.0              -0.418417                  0.0964911
     5 │  2010      1     16                    1     11  BA               0         0      35.5     -108.0               0.287892                 -0.0272079
   ⋮   │   ⋮      ⋮      ⋮             ⋮             ⋮       ⋮         ⋮         ⋮         ⋮          ⋮                ⋮                        ⋮
 48731 │  2023      3     21                  117      9  SH               0         0      35.5     -109.0               0.143276                  2.37981
 48732 │  2023      3     21                  117     10  SH               0         0      35.5     -108.5               0.148338                  1.4683
 48733 │  2023      3     21                  117     12  SH               1         1      35.5     -107.5               1.01169                  -0.485298
 48734 │  2023      3     21                  117     16  SH               0         0      36.0     -108.5               0.0284359                -0.392446
 48735 │  2023      3     21                  117     23  SH               0         0      36.5     -108.0               0.170814                  1.14892
                                                                                                                                            48725 rows omitted
```
…
