Variability Metrics Functions · MetaCommunityMetrics Documentation
…
Details This function calculates the coefficients of variation (CV) for species and community biomass at both local and regional scales. The calculation involves several steps:
Reorganization of Data: The input data is organized into a DataFrame with columns for abundance, time, plot, and species.
Mean Calculations: Temporal mean species abundance is calculated for each species in each patch, as well as the overall temporal mean biomass.
Temporal Variance Calculations: Temporal variance is calculated for each species within patches, for species across patches, for the community biomass within patches, and for the overall metacommunity biomass.
CV Calculations: The coefficients of variation are calculated for species and community biomass at both local and regional scales.
Output: The results are returned in a DataFrame summarizing the CVs for local and regional scales.
Example

julia> using MetaCommunityMetrics, Pipe

julia> df = @pipe load_sample_data() |>
                          filter(row -> row[:Sampling_date_order] < 20, _)
6764×10 DataFrame
  Row │ Year   Month  Day    Sampling_date_order  plot   Species  Abundance  Presence  Latitude  Longitude 
      │ Int64  Int64  Int64  Int64                Int64  String3  Int64      Int64     Float64   Float64   
──────┼────────────────────────────────────────────────────────────────────────────────────────────────────
    1 │  2010      1     16                    1      1  BA               0         0      35.0     -110.0
    2 │  2010      1     16                    1      2  BA               0         0      35.0     -109.5
    3 │  2010      1     16                    1      8  BA               0         0      35.5     -109.5
    4 │  2010      1     16                    1      9  BA               0         0      35.5     -109.0
    5 │  2010      1     16                    1     11  BA               0         0      35.5     -108.0
  ⋮   │   ⋮      ⋮      ⋮             ⋮             ⋮       ⋮         ⋮         ⋮         ⋮          ⋮
 6760 │  2012      1     21                   19     21  SH               0         0      36.5     -109.0
 6761 │  2012      1     21                   19      5  SH               0         0      35.0     -108.0
 6762 │  2012      1     21                   19      7  SH               0         0      35.5     -110.0
 6763 │  2012      1     21                   19     23  SH               0         0      36.5     -108.0
 6764 │  2012      1     21                   19     24  SH               0         0      36.5     -107.5
                                                                                          6754 rows omitted
…
Details This function is a simplified version of the CV_meta function, designed to efficiently handle larger datasets by avoiding complex covariance calculations. The steps include:
Reorganization of Data: The input data is organized into a DataFrame with columns for abundance, time, plot, and species, and then transformed into a 3D abundance matrix.
Total Abundance Calculations: The function calculates total abundances for species across time, within each patch, and for the entire metacommunity.
Standard Deviation (SD) Calculations: Temporal standard deviations of abundance are computed for the entire metacommunity, each patch, and each species.
CV Calculations: The coefficients of variation are calculated for species and community biomass at both local and regional scales.
Output: The results are returned in a DataFrame summarizing the CVs for local and regional scales.
Example

julia> using MetaCommunityMetrics, Pipe

julia> df = @pipe load_sample_data() |>
                          filter(row -> row[:Sampling_date_order] < 20, _)
6764×10 DataFrame
  Row │ Year   Month  Day    Sampling_date_order  plot   Species  Abundance  Presence  Latitude  Longitude 
      │ Int64  Int64  Int64  Int64                Int64  String3  Int64      Int64     Float64   Float64   
──────┼────────────────────────────────────────────────────────────────────────────────────────────────────
    1 │  2010      1     16                    1      1  BA               0         0      35.0     -110.0
    2 │  2010      1     16                    1      2  BA               0         0      35.0     -109.5
    3 │  2010      1     16                    1      8  BA               0         0      35.5     -109.5
    4 │  2010      1     16                    1      9  BA               0         0      35.5     -109.0
    5 │  2010      1     16                    1     11  BA               0         0      35.5     -108.0
  ⋮   │   ⋮      ⋮      ⋮             ⋮             ⋮       ⋮         ⋮         ⋮         ⋮          ⋮
 6760 │  2012      1     21                   19     21  SH               0         0      36.5     -109.0
 6761 │  2012      1     21                   19      5  SH               0         0      35.0     -108.0
 6762 │  2012      1     21                   19      7  SH               0         0      35.5     -110.0
 6763 │  2012      1     21                   19     23  SH               0         0      36.5     -108.0
 6764 │  2012      1     21                   19     24  SH               0         0      36.5     -107.5
                                                                                          6754 rows omitted
…
