Hypervolume Functions · MetaCommunityMetrics Documentation
…
Details
Environmental variables are assumed to follow a multivariate normal distribution, otherwise transformation to normal distribution is recommended before using this function.
Variables should be normalized before using this function to avoid bias from different scales
The function computes the covariance matrix of the input data, extracts variances, and calculates the determinant
This function is a Julia implementation of the MVNH_det function from the R package MVNH (GPL-3)
Original package and documentation: https://github.com/lvmuyang/MVNH
Example

julia> using MetaCommunityMetrics, Pipe, DataFrames, Statistics, UnicodePlots

julia> df = load_sample_data()
48735×12 DataFrame
   Row │ Year   Month  Day    Sampling_date_order  plot   Species  Abundance  Presence  Latitude  Longitude  normalized_temperature  normalized_precipitation 
       │ Int64  Int64  Int64  Int64                Int64  String3  Int64      Int64     Float64   Float64    Float64                 Float64                  
───────┼──────────────────────────────────────────────────────────────────────────────────────────────────────────────────────────────────────────────────────
     1 │  2010      1     16                    1      1  BA               0         0      35.0     -110.0               0.80987                  -0.290381
     2 │  2010      1     16                    1      2  BA               0         0      35.0     -109.5              -1.12523                   0.750317
     3 │  2010      1     16                    1      8  BA               0         0      35.5     -109.5              -1.10775                  -1.87583
     4 │  2010      1     16                    1      9  BA               0         0      35.5     -109.0              -0.418417                  0.0964911
     5 │  2010      1     16                    1     11  BA               0         0      35.5     -108.0               0.287892                 -0.0272079
   ⋮   │   ⋮      ⋮      ⋮             ⋮             ⋮       ⋮         ⋮         ⋮         ⋮          ⋮                ⋮                        ⋮
 48731 │  2023      3     21                  117      9  SH               0         0      35.5     -109.0               0.143276                  2.37981
 48732 │  2023      3     21                  117     10  SH               0         0      35.5     -108.5               0.148338                  1.4683
 48733 │  2023      3     21                  117     12  SH               1         1      35.5     -107.5               1.01169                  -0.485298
 48734 │  2023      3     21                  117     16  SH               0         0      36.0     -108.5               0.0284359                -0.392446
 48735 │  2023      3     21                  117     23  SH               0         0      36.5     -108.0               0.170814                  1.14892
                                                                                                                                            48725 rows omitted

julia> data = @pipe df |> 
            filter(row -> row[:Presence] > 0, _) |>
            filter(row -> row[:Species] == "BA", _) |>
            select(_, [:normalized_temperature, :normalized_precipitation])
143×2 DataFrame
 Row │ normalized_temperature  normalized_precipitation 
     │ Float64                 Float64                  
─────┼──────────────────────────────────────────────────
   1 │             -1.40523                   0.746757
   2 │             -2.61504                   0.229756
   3 │              0.199089                  0.347726
   4 │             -3.02404                  -0.166723
   5 │              0.835775                  0.556397
  ⋮  │           ⋮                        ⋮
 139 │              0.573287                  0.79109
 140 │             -0.0933359                -2.29843
 141 │              0.510836                 -1.97484
 142 │             -0.954948                 -0.379064
 143 │             -0.194825                 -0.167562
                                        133 rows omitted    
…
Details
The Bhattacharyya distance is calculated as the sum of two components:Mahalanobis component: (1/8) × (μ₁-μ₂)ᵀ × (S₁+S₂)/2⁻¹ × (μ₁-μ₂)
Determinant ratio component: (1/2) × log(det((S₁+S₂)/2) / sqrt(det(S₁) × det(S₂)))

Each component is further decomposed into individual variable contributions and correlation effects
Environmental variables are assumed to follow a multivariate normal distribution, otherwise transformation to normal distribution is recommended before using this function.
Variables should be normalized before using this function to avoid bias from different scales
This function is a Julia implementation inspired by the MVNH R package (GPL-3)
Original package and documentation: https://github.com/lvmuyang/MVNH
Example

julia> using MetaCommunityMetrics, Pipe, DataFrames, Statistics

julia> df = load_sample_data()
48735×12 DataFrame
   Row │ Year   Month  Day    Sampling_date_order  plot   Species  Abundance  Presence  Latitude  Longitude  normalized_temperature  normalized_precipitation 
       │ Int64  Int64  Int64  Int64                Int64  String3  Int64      Int64     Float64   Float64    Float64                 Float64                  
───────┼──────────────────────────────────────────────────────────────────────────────────────────────────────────────────────────────────────────────────────
     1 │  2010      1     16                    1      1  BA               0         0      35.0     -110.0               0.80987                  -0.290381
     2 │  2010      1     16                    1      2  BA               0         0      35.0     -109.5              -1.12523                   0.750317
     3 │  2010      1     16                    1      8  BA               0         0      35.5     -109.5              -1.10775                  -1.87583
     4 │  2010      1     16                    1      9  BA               0         0      35.5     -109.0              -0.418417                  0.0964911
     5 │  2010      1     16                    1     11  BA               0         0      35.5     -108.0               0.287892                 -0.0272079
   ⋮   │   ⋮      ⋮      ⋮             ⋮             ⋮       ⋮         ⋮         ⋮         ⋮          ⋮                ⋮                        ⋮
 48731 │  2023      3     21                  117      9  SH               0         0      35.5     -109.0               0.143276                  2.37981
 48732 │  2023      3     21                  117     10  SH               0         0      35.5     -108.5               0.148338                  1.4683
 48733 │  2023      3     21                  117     12  SH               1         1      35.5     -107.5               1.01169                  -0.485298
 48734 │  2023      3     21                  117     16  SH               0         0      36.0     -108.5               0.0284359                -0.392446
 48735 │  2023      3     21                  117     23  SH               0         0      36.5     -108.0               0.170814                  1.14892
                                                                                                                                            48725 rows omitted

julia> data_1 = @pipe df |> 
            filter(row -> row[:Presence] > 0, _) |>
            filter(row -> row[:Species] == "BA", _) |>
            select(_, [:normalized_temperature, :normalized_precipitation])
143×2 DataFrame
 Row │ normalized_temperature  normalized_precipitation 
     │ Float64                 Float64                  
─────┼──────────────────────────────────────────────────
   1 │             -1.40523                   0.746757
   2 │             -2.61504                   0.229756
   3 │              0.199089                  0.347726
   4 │             -3.02404                  -0.166723
   5 │              0.835775                  0.556397
  ⋮  │           ⋮                        ⋮
 139 │              0.573287                  0.79109
 140 │             -0.0933359                -2.29843
 141 │              0.510836                 -1.97484
 142 │             -0.954948                 -0.379064
 143 │             -0.194825                 -0.167562
                                        133 rows omitted

julia> data_2 = @pipe df |> 
            filter(row -> row[:Presence] > 0, _) |>
            filter(row -> row[:Species] == "SH", _) |>
            select(_, [:normalized_temperature, :normalized_precipitation])
58×2 DataFrame
 Row │ normalized_temperature  normalized_precipitation 
     │ Float64                 Float64                  
─────┼──────────────────────────────────────────────────
   1 │               0.319133                -1.26372
   2 │               0.227851                -1.30392
   3 │               0.688124                 0.63633
   4 │              -0.630506                 0.269884
   5 │              -0.600362                -0.601565
  ⋮  │           ⋮                        ⋮
  54 │              -0.560579                -1.1251
  55 │              -0.216268                 0.673043
  56 │               1.04894                 -0.264528
  57 │              -1.52279                  1.80578
  58 │               1.01169                 -0.485298
                                         48 rows omitted
…
The function then computes the mean of all individual species hypervolumes
Species with no presence data are skipped in the calculation
Environmental variables are assumed to follow a multivariate normal distribution, otherwise transformation to normal distribution is recommended before using this function.
Variables should be normalized before using this function to avoid bias from different scales
Example

julia> using MetaCommunityMetrics, Pipe, DataFrames, Statistics

julia> df = load_sample_data()
48735×12 DataFrame
   Row │ Year   Month  Day    Sampling_date_order  plot   Species  Abundance  Presence  Latitude  Longitude  normalized_temperature  normalized_precipitation 
       │ Int64  Int64  Int64  Int64                Int64  String3  Int64      Int64     Float64   Float64    Float64                 Float64                  
───────┼──────────────────────────────────────────────────────────────────────────────────────────────────────────────────────────────────────────────────────
     1 │  2010      1     16                    1      1  BA               0         0      35.0     -110.0               0.80987                  -0.290381
     2 │  2010      1     16                    1      2  BA               0         0      35.0     -109.5              -1.12523                   0.750317
     3 │  2010      1     16                    1      8  BA               0         0      35.5     -109.5              -1.10775                  -1.87583
     4 │  2010      1     16                    1      9  BA               0         0      35.5     -109.0              -0.418417                  0.0964911
     5 │  2010      1     16                    1     11  BA               0         0      35.5     -108.0               0.287892                 -0.0272079
   ⋮   │   ⋮      ⋮      ⋮             ⋮             ⋮       ⋮         ⋮         ⋮         ⋮          ⋮                ⋮                        ⋮
 48731 │  2023      3     21                  117      9  SH               0         0      35.5     -109.0               0.143276                  2.37981
 48732 │  2023      3     21                  117     10  SH               0         0      35.5     -108.5               0.148338                  1.4683
 48733 │  2023      3     21                  117     12  SH               1         1      35.5     -107.5               1.01169                  -0.485298
 48734 │  2023      3     21                  117     16  SH               0         0      36.0     -108.5               0.0284359                -0.392446
 48735 │  2023      3     21                  117     23  SH               0         0      36.5     -108.0               0.170814                  1.14892
                                                                                                                                            48725 rows omitted

julia> data = @pipe df |> 
           select(_, [:normalized_temperature, :normalized_precipitation])
           
48735×2 DataFrame
   Row │ normalized_temperature  normalized_precipitation 
       │ Float64                 Float64                  
───────┼──────────────────────────────────────────────────
     1 │              0.80987                  -0.290381
     2 │             -1.12523                   0.750317
     3 │             -1.10775                  -1.87583
     4 │             -0.418417                  0.0964911
     5 │              0.287892                 -0.0272079
   ⋮   │           ⋮                        ⋮
 48731 │              0.143276                  2.37981
 48732 │              0.148338                  1.4683
 48733 │              1.01169                  -0.485298
 48734 │              0.0284359                -0.392446
 48735 │              0.170814                  1.14892
                                        48725 rows omitted
…
The function then computes the mean of all pairwise Bhattacharyya distances
Species pairs where either species has no presence data are skipped
Each species pair is processed only once (i.e., sp1-sp2 is calculated, but sp2-sp1 is skipped)
Environmental variables are assumed to follow a multivariate normal distribution
Variables should be normalized before using this function to avoid bias from different scales
Example

julia> using MetaCommunityMetrics, Pipe, DataFrames, Statistics

julia> df = load_sample_data()
48735×12 DataFrame
   Row │ Year   Month  Day    Sampling_date_order  plot   Species  Abundance  Presence  Latitude  Longitude  normalized_temperature  normalized_precipitation 
       │ Int64  Int64  Int64  Int64                Int64  String3  Int64      Int64     Float64   Float64    Float64                 Float64                  
───────┼──────────────────────────────────────────────────────────────────────────────────────────────────────────────────────────────────────────────────────
     1 │  2010      1     16                    1      1  BA               0         0      35.0     -110.0               0.80987                  -0.290381
     2 │  2010      1     16                    1      2  BA               0         0      35.0     -109.5              -1.12523                   0.750317
     3 │  2010      1     16                    1      8  BA               0         0      35.5     -109.5              -1.10775                  -1.87583
     4 │  2010      1     16                    1      9  BA               0         0      35.5     -109.0              -0.418417                  0.0964911
     5 │  2010      1     16                    1     11  BA               0         0      35.5     -108.0               0.287892                 -0.0272079
   ⋮   │   ⋮      ⋮      ⋮             ⋮             ⋮       ⋮         ⋮         ⋮         ⋮          ⋮                ⋮                        ⋮
 48731 │  2023      3     21                  117      9  SH               0         0      35.5     -109.0               0.143276                  2.37981
 48732 │  2023      3     21                  117     10  SH               0         0      35.5     -108.5               0.148338                  1.4683
 48733 │  2023      3     21                  117     12  SH               1         1      35.5     -107.5               1.01169                  -0.485298
 48734 │  2023      3     21                  117     16  SH               0         0      36.0     -108.5               0.0284359                -0.392446
 48735 │  2023      3     21                  117     23  SH               0         0      36.5     -108.0               0.170814                  1.14892
                                                                                                                                            48725 rows omitted

julia> data = @pipe df |> 
           select(_, [:normalized_temperature, :normalized_precipitation])    
48735×2 DataFrame
   Row │ normalized_temperature  normalized_precipitation 
       │ Float64                 Float64                  
───────┼──────────────────────────────────────────────────
     1 │              0.80987                  -0.290381
     2 │             -1.12523                   0.750317
     3 │             -1.10775                  -1.87583
     4 │             -0.418417                  0.0964911
     5 │              0.287892                 -0.0272079
   ⋮   │           ⋮                        ⋮
 48731 │              0.143276                  2.37981
 48732 │              0.148338                  1.4683
 48733 │              1.01169                  -0.485298
 48734 │              0.0284359                -0.392446
 48735 │              0.170814                  1.14892
                                        48725 rows omitted
…
