Dispersal-Niche Continuum Index (DNCI) Functions · MetaCommunityMetrics Documentation
…
Details
This function performs hierarchical clustering (complete linkage) on the geographical coordinates (latitude and longitude) of sampling sites at each time point separately and processes all time points in a single execution. A minimum of 10 sites is required to proceed with grouping; if fewer are present at a given time step, the grouping is returned as missing. Otherwise, the number of clusters k is initialized as the largest integer no greater than the total number of sites divided by 5 (with a minimum of 2). Sites are then assigned to k groups based on their geographical proximity.
This function incorporates checks and adjustments to ensure the following conditions are met:At least 2 groups
A minimum of 5 sites per group
The difference in the number of taxa and sites between any two groups, relative to the larger group, does not exceed 40% and 30%, respectively 
These conditions are critical for calculating an unbiased DNCI value. If the conditions are not met, the function first attempts to fix the groupings iteratively: if the smallest group contains only one site, that site is merged into the nearest neighbouring group; otherwise, the nearest site from any other group is reassigned into the smallest group based on its distance to the smallest group's centroid. If the conditions are still not met after this adjustment, k is decremented by 1 and the process repeats, until either the conditions are satisfied or k falls below 2 (in which case the grouping is returned as missing).
Empty sites are allowed.
Example

julia> using MetaCommunityMetrics, Pipe, DataFrames

julia> df = load_sample_data()
53352×12 DataFrame
   Row │ Year   Month  Day    Sampling_date_order  plot   Species  Abundance  Presence  Latitude  Longitude  standardized_temperature  standardized_precipitation 
       │ Int64  Int64  Int64  Int64                Int64  String3  Int64      Int64     Float64   Float64    Float64                 Float64                  
───────┼──────────────────────────────────────────────────────────────────────────────────────────────────────────────────────────────────────────────────────
     1 │  2010      1     16                    1      1  BA               0         0      35.0     -110.0                0.829467              -1.4024
     2 │  2010      1     16                    1      2  BA               0         0      35.0     -109.5               -1.12294               -0.0519895
     3 │  2010      1     16                    1      4  BA               0         0      35.0     -108.5               -0.409808              -0.803663
     4 │  2010      1     16                    1      8  BA               0         0      35.5     -109.5               -1.35913               -0.646369
     5 │  2010      1     16                    1      9  BA               0         0      35.5     -109.0                0.0822                 1.09485
   ⋮   │   ⋮      ⋮      ⋮             ⋮             ⋮       ⋮         ⋮         ⋮         ⋮          ⋮                ⋮                        ⋮
 53348 │  2023      3     21                  117      9  SH               0         0      35.5     -109.0               -0.571565              -0.836345
 53349 │  2023      3     21                  117     10  SH               0         0      35.5     -108.5               -2.33729               -0.398522
 53350 │  2023      3     21                  117     12  SH               1         1      35.5     -107.5                0.547169               1.03257
 53351 │  2023      3     21                  117     16  SH               0         0      36.0     -108.5               -0.815015               0.95971
 53352 │  2023      3     21                  117     23  SH               0         0      36.5     -108.0                0.48949               -1.59416
                                                                                                                                            53342 rows omitted
…
julia> grouping_result[10]      
456×7 DataFrame
 Row │ Time   Latitude  Longitude  Site   Species  Presence  Group   
     │ Int64  Float64   Float64    Int64  String3  Int64     Missing 
─────┼───────────────────────────────────────────────────────────────
   1 │    10      35.0     -110.0      1  BA              0  missing 
   2 │    10      35.0     -109.5      2  BA              0  missing 
   3 │    10      35.0     -108.5      4  BA              0  missing 
   4 │    10      35.5     -109.5      8  BA              0  missing 
   5 │    10      35.5     -109.0      9  BA              0  missing 
  ⋮  │   ⋮       ⋮          ⋮        ⋮       ⋮        ⋮         ⋮
 452 │    10      35.5     -110.0      7  SH              0  missing 
 453 │    10      35.5     -108.5     10  SH              0  missing 
 454 │    10      36.0     -108.5     16  SH              0  missing 
 455 │    10      36.5     -108.0     23  SH              0  missing 
 456 │    10      36.5     -107.5     24  SH              0  missing 
                                                     446 rows omitted      
 
julia> grouping_result[60]                                                      
456×7 DataFrame
 Row │ Time   Latitude  Longitude  Site   Species  Presence  Group  
     │ Int64  Float64   Float64    Int64  String3  Int64     Int64? 
─────┼──────────────────────────────────────────────────────────────
   1 │    60      35.0     -108.5      4  BA              0       1
   2 │    60      35.0     -108.0      5  BA              1       1
   3 │    60      35.0     -107.5      6  BA              0       1
   4 │    60      35.5     -110.0      7  BA              0       2
   5 │    60      35.5     -108.0     11  BA              0       1
  ⋮  │   ⋮       ⋮          ⋮        ⋮       ⋮        ⋮        ⋮
 452 │    60      35.5     -109.0      9  SH              0       2
 453 │    60      35.5     -108.5     10  SH              0       1
 454 │    60      35.5     -107.5     12  SH              1       1
 455 │    60      36.0     -108.5     16  SH              0       4
 456 │    60      36.5     -108.0     23  SH              0       4
                                                    446 rows omitted
…
julia> using MetaCommunityMetrics, Pipe, DataFrames

julia> df = load_sample_data()
53352×12 DataFrame
   Row │ Year   Month  Day    Sampling_date_order  plot   Species  Abundance  Presence  Latitude  Longitude  standardized_temperature  standardized_precipitation 
       │ Int64  Int64  Int64  Int64                Int64  String3  Int64      Int64     Float64   Float64    Float64                 Float64                  
───────┼──────────────────────────────────────────────────────────────────────────────────────────────────────────────────────────────────────────────────────
     1 │  2010      1     16                    1      1  BA               0         0      35.0     -110.0                0.829467              -1.4024
     2 │  2010      1     16                    1      2  BA               0         0      35.0     -109.5               -1.12294               -0.0519895
     3 │  2010      1     16                    1      4  BA               0         0      35.0     -108.5               -0.409808              -0.803663
     4 │  2010      1     16                    1      8  BA               0         0      35.5     -109.5               -1.35913               -0.646369
     5 │  2010      1     16                    1      9  BA               0         0      35.5     -109.0                0.0822                 1.09485
   ⋮   │   ⋮      ⋮      ⋮             ⋮             ⋮       ⋮         ⋮         ⋮         ⋮          ⋮                ⋮                        ⋮
 53348 │  2023      3     21                  117      9  SH               0         0      35.5     -109.0               -0.571565              -0.836345
 53349 │  2023      3     21                  117     10  SH               0         0      35.5     -108.5               -2.33729               -0.398522
 53350 │  2023      3     21                  117     12  SH               1         1      35.5     -107.5                0.547169               1.03257
 53351 │  2023      3     21                  117     16  SH               0         0      36.0     -108.5               -0.815015               0.95971
 53352 │  2023      3     21                  117     23  SH               0         0      36.5     -108.0                0.48949               -1.59416
                                                                                                                                            53342 rows omitted
…
julia> grouping_result[60]                                                      
456×7 DataFrame
 Row │ Time   Latitude  Longitude  Site   Species  Presence  Group  
     │ Int64  Float64   Float64    Int64  String3  Int64     Int64? 
─────┼──────────────────────────────────────────────────────────────
   1 │    60      35.0     -108.5      4  BA              0       1
   2 │    60      35.0     -108.0      5  BA              1       1
   3 │    60      35.0     -107.5      6  BA              0       1
   4 │    60      35.5     -110.0      7  BA              0       2
   5 │    60      35.5     -108.0     11  BA              0       1
  ⋮  │   ⋮       ⋮          ⋮        ⋮       ⋮        ⋮        ⋮
 452 │    60      35.5     -109.0      9  SH              0       2
 453 │    60      35.5     -108.5     10  SH              0       1
 454 │    60      35.5     -107.5     12  SH              1       1
 455 │    60      36.0     -108.5     16  SH              0       4
 456 │    60      36.5     -108.0     23  SH              0       4
                                                    446 rows omitted
…
Details
The function calculates the DNCI for each pair of groups in the input data. See the DNCI column description above for interpretation.
Different from the original implementation, empty sites and singletons (species that only occupy one site at a given time) are allowed, and a new Status column has been added to flag five edge cases where the DNCI calculation will fail, which are common when simulated data are used.
This function is an adaptation of DNCI_multigroup() from the R package DNCImper (https://github.com/Corentin-Gibert-Paleontology/DNCImper), authored by Corentin Gibert, Gilles Escarguel, Annika Vilmi, Jianjun Wang, Aurelien Jamoneau, and Maxime Lopez, and licensed under GPL-3. First adapted from R to Julia in August 2024.
Example

julia> using MetaCommunityMetrics, Pipe, DataFrames, Random

julia> df = load_sample_data()
53352×12 DataFrame
   Row │ Year   Month  Day    Sampling_date_order  plot   Species  Abundance  Presence  Latitude  Longitude  standardized_temperature  standardized_precipitation 
       │ Int64  Int64  Int64  Int64                Int64  String3  Int64      Int64     Float64   Float64    Float64                 Float64                  
───────┼──────────────────────────────────────────────────────────────────────────────────────────────────────────────────────────────────────────────────────
     1 │  2010      1     16                    1      1  BA               0         0      35.0     -110.0                0.829467              -1.4024
     2 │  2010      1     16                    1      2  BA               0         0      35.0     -109.5               -1.12294               -0.0519895
     3 │  2010      1     16                    1      4  BA               0         0      35.0     -108.5               -0.409808              -0.803663
     4 │  2010      1     16                    1      8  BA               0         0      35.5     -109.5               -1.35913               -0.646369
     5 │  2010      1     16                    1      9  BA               0         0      35.5     -109.0                0.0822                 1.09485
   ⋮   │   ⋮      ⋮      ⋮             ⋮             ⋮       ⋮         ⋮         ⋮         ⋮          ⋮                ⋮                        ⋮
 53348 │  2023      3     21                  117      9  SH               0         0      35.5     -109.0               -0.571565              -0.836345
 53349 │  2023      3     21                  117     10  SH               0         0      35.5     -108.5               -2.33729               -0.398522
 53350 │  2023      3     21                  117     12  SH               1         1      35.5     -107.5                0.547169               1.03257
 53351 │  2023      3     21                  117     16  SH               0         0      36.0     -108.5               -0.815015               0.95971
 53352 │  2023      3     21                  117     23  SH               0         0      36.5     -108.0                0.48949               -1.59416
                                                                                                                                            53342 rows omitted
…
julia> grouping_result[60]
456×7 DataFrame
 Row │ Time   Latitude  Longitude  Site   Species  Presence  Group  
     │ Int64  Float64   Float64    Int64  String3  Int64     Int64? 
─────┼──────────────────────────────────────────────────────────────
   1 │    60      35.0     -108.5      4  BA              0       1
   2 │    60      35.0     -108.0      5  BA              1       1
   3 │    60      35.0     -107.5      6  BA              0       1
   4 │    60      35.5     -110.0      7  BA              0       2
   5 │    60      35.5     -108.0     11  BA              0       1
  ⋮  │   ⋮       ⋮          ⋮        ⋮       ⋮        ⋮        ⋮
 452 │    60      35.5     -109.0      9  SH              0       2
 453 │    60      35.5     -108.5     10  SH              0       1
 454 │    60      35.5     -107.5     12  SH              1       1
 455 │    60      36.0     -108.5     16  SH              0       4
 456 │    60      36.5     -108.0     23  SH              0       4
                                                    446 rows omitted

julia> group_df = @pipe df |>
                filter(row -> row[:Sampling_date_order] == 60, _) |>
                select(_, [:plot, :Species, :Presence]) |>
                innerjoin(_, grouping_result[60], on = [:plot => :Site, :Species], makeunique = true)|>
                select(_, [:plot, :Species, :Presence, :Group]) |>
                unstack(_, :Species, :Presence, fill=0)
24×21 DataFrame
 Row │ plot   Group   BA     DM     DO     DS     NA     OL     OT     PB     PE     PF     PH     PL     PM     PP     RF     RM     RO     SF     SH    
     │ Int64  Int64?  Int64  Int64  Int64  Int64  Int64  Int64  Int64  Int64  Int64  Int64  Int64  Int64  Int64  Int64  Int64  Int64  Int64  Int64  Int64 
─────┼────────────────────────────────────────────────────────────────────────────────────────────────────────────────────────────────────────────────────
   1 │     4       1      0      1      1      0      0      1      1      0      0      0      0      0      0      0      0      1      0      1      0
   2 │     5       1      1      1      1      0      0      0      1      0      1      0      0      0      0      1      0      1      0      0      0
   3 │     6       1      0      1      1      0      0      0      0      0      1      0      0      0      0      1      0      1      0      0      0
   4 │     7       2      0      1      1      0      0      1      1      0      0      0      0      0      0      1      0      0      0      0      1
   5 │    11       1      0      1      1      0      0      0      1      0      0      0      0      0      0      1      0      0      0      0      0
  ⋮  │   ⋮      ⋮       ⋮      ⋮      ⋮      ⋮      ⋮      ⋮      ⋮      ⋮      ⋮      ⋮      ⋮      ⋮      ⋮      ⋮      ⋮      ⋮      ⋮      ⋮      ⋮
  20 │     9       2      0      1      0      0      0      1      1      0      1      0      0      0      0      0      0      0      0      0      0
  21 │    10       1      0      0      0      0      0      0      0      0      1      0      0      0      0      1      0      0      0      0      0
  22 │    12       1      0      0      0      0      1      0      1      0      1      0      0      0      1      0      0      1      0      0      1
  23 │    16       4      0      0      1      0      0      0      1      0      1      0      0      0      0      0      0      1      0      0      0
  24 │    23       4      0      1      0      0      0      0      0      1      0      0      0      0      1      0      0      0      0      0      0
                                                                                                                                           14 rows omitted
…
