Occupied Patches Proportion Function · MetaCommunityMetrics Documentation
…
julia> using MetaCommunityMetrics

julia> df = load_sample_data()
48735×12 DataFrame
   Row │ Year   Month  Day    Sampling_date_order  plot   Species  Abundance  Presence  Latitude  Longitude  normalized_temperature  normalized_precipitation 
       │ Int64  Int64  Int64  Int64                Int64  String3  Int64      Int64     Float64   Float64    Float64                 Float64                  
───────┼──────────────────────────────────────────────────────────────────────────────────────────────────────────────────────────────────────────────────────
     1 │  2010      1     16                    1      1  BA               0         0      35.0     -110.0               0.838777                 -0.290705
     2 │  2010      1     16                    1      2  BA               0         0      35.0     -109.5              -1.10913                  -0.959396
     3 │  2010      1     16                    1      8  BA               0         0      35.5     -109.5               0.313343                 -0.660172
     4 │  2010      1     16                    1      9  BA               0         0      35.5     -109.0               0.255048                 -0.821056
     5 │  2010      1     16                    1     11  BA               0         0      35.5     -108.0              -0.402463                 -0.925731
   ⋮   │   ⋮      ⋮      ⋮             ⋮             ⋮       ⋮         ⋮         ⋮         ⋮          ⋮                ⋮                        ⋮
 48731 │  2023      3     21                  117      9  SH               0         0      35.5     -109.0              -0.332365                 -0.189471
 48732 │  2023      3     21                  117     10  SH               0         0      35.5     -108.5               0.516463                 -0.887027
 48733 │  2023      3     21                  117     12  SH               1         1      35.5     -107.5               0.617823                 -0.50501
 48734 │  2023      3     21                  117     16  SH               0         0      36.0     -108.5               0.391502                 -0.834642
 48735 │  2023      3     21                  117     23  SH               0         0      36.5     -108.0               0.172865                 -0.280639
                                                                                                                                            48725 rows omitted
…
