Niche Overlap Index Function · MetaCommunityMetrics Documentation
…
julia> using MetaCommunityMetrics

julia> df = load_sample_data()
53352×12 DataFrame
   Row │ Year   Month  Day    Sampling_date_order  plot   Species  Abundance  Presence  Latitude  Longitude  standardized_temperature  standardized_precipitation 
       │ Int64  Int64  Int64  Int64                Int64  String3  Int64      Int64     Float64   Float64    Float64                 Float64                  
───────┼──────────────────────────────────────────────────────────────────────────────────────────────────────────────────────────────────────────────────────
     1 │  2010      1     16                    1      1  BA               0         0      35.0     -110.0                0.829467              -1.4024
     2 │  2010      1     16                    1      2  BA               0         0      35.0     -109.5               -1.12294               -0.0519895
     3 │  2010      1     16                    1      4  BA               0         0      35.0     -108.5               -0.409808              -0.803663
     4 │  2010      1     16                    1      8  BA               0         0      35.5     -109.5               -1.35913               -0.646369
     5 │  2010      1     16                    1      9  BA               0         0      35.5     -109.0                0.0822                 1.09485
   ⋮   │   ⋮      ⋮      ⋮             ⋮             ⋮       ⋮         ⋮         ⋮         ⋮          ⋮                ⋮                        ⋮
 53348 │  2023      3     21                  117      9  SH               0         0      35.5     -109.0               -0.571565              -0.836345
 53349 │  2023      3     21                  117     10  SH               0         0      35.5     -108.5               -2.33729               -0.398522
 53350 │  2023      3     21                  117     12  SH               1         1      35.5     -107.5                0.547169               1.03257
 53351 │  2023      3     21                  117     16  SH               0         0      36.0     -108.5               -0.815015               0.95971
 53352 │  2023      3     21                  117     23  SH               0         0      36.5     -108.0                0.48949               -1.59416
                                                                                                                                            53342 rows omitted
…
